Introduction to Data Science
…
--

.pull-right[

``` r
R> # Group by species and apply the custom function
R> species_stats <- starwars %>%
+   group_by(species) %>%
+   nest() # Nesting the data
R> species_stats
```

```
   # A tibble: 38 × 2
   # Groups:   species [38]
      species        data              
      <chr>          <list>            
    1 Human          <tibble [35 × 13]>
    2 Droid          <tibble [6 × 13]> 
    3 Wookiee        <tibble [2 × 13]> 
    4 Rodian         <tibble [1 × 13]> 
    5 Hutt           <tibble [1 × 13]> 
    6 <NA>           <tibble [4 × 13]> 
    7 Yoda's species <tibble [1 × 13]> 
    8 Trandoshan     <tibble [1 × 13]> 
    9 Mon Calamari   <tibble [1 × 13]> 
   10 Ewok           <tibble [1 × 13]> 
   # ℹ 28 more rows
```
…
.pull-right[

``` r
R> # Group by species and apply the custom function
R> species_stats <- starwars %>%
+   group_by(species) %>%
+   nest() %>% # Nesting the data
+   # purrr magic
+   mutate(stats = map(data, calc_stats))
R> species_stats
```

```
   # A tibble: 38 × 3
   # Groups:   species [38]
      species        data               stats           
      <chr>          <list>             <list>          
    1 Human          <tibble [35 × 13]> <tibble [1 × 4]>
    2 Droid          <tibble [6 × 13]>  <tibble [1 × 4]>
    3 Wookiee        <tibble [2 × 13]>  <tibble [1 × 4]>
    4 Rodian         <tibble [1 × 13]>  <tibble [1 × 4]>
    5 Hutt           <tibble [1 × 13]>  <tibble [1 × 4]>
    6 <NA>           <tibble [4 × 13]>  <tibble [1 × 4]>
    7 Yoda's species <tibble [1 × 13]>  <tibble [1 × 4]>
    8 Trandoshan     <tibble [1 × 13]>  <tibble [1 × 4]>
    9 Mon Calamari   <tibble [1 × 13]>  <tibble [1 × 4]>
   10 Ewok           <tibble [1 × 13]>  <tibble [1 × 4]>
   # ℹ 28 more rows
```
…
``` r
R> # Group by species and apply the custom function
R> species_stats <- starwars %>%
+   group_by(species) %>%
+   nest() %>% # Nesting the data
+   # purrr magic
+   mutate(stats = map(data, calc_stats)) %>% 
+   select(species, stats) %>% # Select columns
+   unnest(stats) # Unnest the data
R> species_stats
```

```
   # A tibble: 38 × 5
   # Groups:   species [38]
      species        height_mean height_sd mass_mean mass_sd
      <chr>                <dbl>     <dbl>     <dbl>   <dbl>
    1 Human                 178      12.0       81.3    19.3
    2 Droid                 131.     49.1       69.8    51.0
    3 Wookiee               231       4.24     124      17.0
    4 Rodian                173      NA         74      NA  
    5 Hutt                  175      NA       1358      NA  
    6 <NA>                  175      12.4       81      31.2
    7 Yoda's species         66      NA         17      NA  
    8 Trandoshan            190      NA        113      NA  
    9 Mon Calamari          180      NA         83      NA  
   10 Ewok                   88      NA         20      NA  
   # ℹ 28 more rows
```
…
